How does coffee spending vary based on demographic and lifestyle factors? – Project 01 (INFO 3312/5312)
…
# Calculate the average spending for each style by WFH status
avg_spending_by_style_wfh <- agg_data |>
  group_by(style, wfh) |>
  summarise(avg_spend = mean(avg_total_spend, na.rm = TRUE)) |>
  ungroup()

# View the average spending for each style by WFH status
print(avg_spending_by_style_wfh)

# A tibble: 30 × 3
   style       wfh                        avg_spend
   <fct>       <chr>                          <dbl>
 1 sweet       i do a mix of both              45.8
 2 sweet       i primarily work from home      38.3
 3 sweet       i primarily work in person      35.7
 4 nutty       i do a mix of both              41.2
 5 nutty       i primarily work from home      41.0
 6 nutty       i primarily work in person      40.4
 7 juicy       i do a mix of both              55.2
 8 juicy       i primarily work from home      51.2
 9 juicy       i primarily work in person      48.4
10 full bodied i do a mix of both              41.1
# ℹ 20 more rows
…
