AE 09: Explore coffee taste tests
…
coffee_survey |>
  select(starts_with("coffee"), -ends_with("notes")) |>
  pivot_longer(
    cols = everything(),
    names_to = c("coffee", "measure"),
    names_prefix = "coffee_",
    names_sep = "_",
    values_to = "value"
  )

Warning: Expected 2 pieces. Additional pieces discarded in 4 rows [3, 6, 9,
12].

# A tibble: 48,504 × 3
   coffee measure    value
   <chr>  <chr>      <dbl>
 1 a      bitterness    NA
 2 a      acidity       NA
 3 a      personal      NA
 4 b      bitterness    NA
 5 b      acidity       NA
 6 b      personal      NA
 7 c      bitterness    NA
 8 c      acidity       NA
 9 c      personal      NA
10 d      bitterness    NA
# ℹ 48,494 more rows
…
